<?xml version="1.0" encoding="UTF-8"?>
<svg xmlns="http://www.w3.org/2000/svg" xmlns:xlink="http://www.w3.org/1999/xlink" width="100pt" height="100pt" viewBox="0 0 100 100" version="1.1">
<g id="surface1173901">
<path style=" stroke:none;fill-rule:nonzero;fill:rgb(100%,25.098041%,50.588238%);fill-opacity:1;" d="M 51.0625 94.96875 L 13.875 72.992188 L 13.875 29.132812 L 51.0625 7.15625 L 88.25 29.132812 L 88.25 72.992188 Z M 18.125 70.570312 L 51.0625 90.03125 L 84 70.570312 L 84 31.554688 L 51.0625 12.09375 L 18.125 31.554688 Z M 18.125 70.570312 "/>
<path style=" stroke:none;fill-rule:nonzero;fill:rgb(100%,25.098041%,50.588238%);fill-opacity:1;" d="M 58.5 10.6875 C 58.5 14.796875 55.171875 18.125 51.0625 18.125 C 46.953125 18.125 43.625 14.796875 43.625 10.6875 C 43.625 6.578125 46.953125 3.25 51.0625 3.25 C 55.171875 3.25 58.5 6.578125 58.5 10.6875 Z M 58.5 10.6875 "/>
<path style=" stroke:none;fill-rule:nonzero;fill:rgb(100%,25.098041%,50.588238%);fill-opacity:1;" d="M 58.5 91.4375 C 58.5 95.546875 55.171875 98.875 51.0625 98.875 C 46.953125 98.875 43.625 95.546875 43.625 91.4375 C 43.625 87.328125 46.953125 84 51.0625 84 C 55.171875 84 58.5 87.328125 58.5 91.4375 Z M 58.5 91.4375 "/>
<path style=" stroke:none;fill-rule:nonzero;fill:rgb(100%,25.098041%,50.588238%);fill-opacity:1;" d="M 24.5 70.1875 C 24.5 74.296875 21.171875 77.625 17.0625 77.625 C 12.953125 77.625 9.625 74.296875 9.625 70.1875 C 9.625 66.078125 12.953125 62.75 17.0625 62.75 C 21.171875 62.75 24.5 66.078125 24.5 70.1875 Z M 24.5 70.1875 "/>
<path style=" stroke:none;fill-rule:nonzero;fill:rgb(100%,25.098041%,50.588238%);fill-opacity:1;" d="M 92.5 70.1875 C 92.5 74.296875 89.171875 77.625 85.0625 77.625 C 80.953125 77.625 77.625 74.296875 77.625 70.1875 C 77.625 66.078125 80.953125 62.75 85.0625 62.75 C 89.171875 62.75 92.5 66.078125 92.5 70.1875 Z M 92.5 70.1875 "/>
<path style=" stroke:none;fill-rule:nonzero;fill:rgb(100%,25.098041%,50.588238%);fill-opacity:1;" d="M 24.5 31.9375 C 24.5 36.046875 21.171875 39.375 17.0625 39.375 C 12.953125 39.375 9.625 36.046875 9.625 31.9375 C 9.625 27.828125 12.953125 24.5 17.0625 24.5 C 21.171875 24.5 24.5 27.828125 24.5 31.9375 Z M 24.5 31.9375 "/>
<path style=" stroke:none;fill-rule:nonzero;fill:rgb(100%,25.098041%,50.588238%);fill-opacity:1;" d="M 92.5 31.9375 C 92.5 36.046875 89.171875 39.375 85.0625 39.375 C 80.953125 39.375 77.625 36.046875 77.625 31.9375 C 77.625 27.828125 80.953125 24.5 85.0625 24.5 C 89.171875 24.5 92.5 27.828125 92.5 31.9375 Z M 92.5 31.9375 "/>
<path style=" stroke:none;fill-rule:nonzero;fill:rgb(100%,25.098041%,50.588238%);fill-opacity:1;" d="M 89.78125 73.375 L 12.34375 73.375 L 51.0625 5.328125 Z M 19.65625 69.125 L 82.46875 69.125 L 51.0625 13.921875 Z M 19.65625 69.125 "/>
</g>
</svg>
